Democratization on growth • didwrappers
…
There are 5 countries that enter the analysis in 1970. However, only
Ghana is observed pre-democracy. Now consider the countries that might
be in the control group.

demgdp[(demgdp$YearFirstDemocracy==0|demgdp$YearFirstDemocracy>1970) & demgdp$year %in% c(1969,1970),c(1:5,8)]
#> # A tibble: 106 × 6
#>    country_name wbcode  year gdppercapitaconstant2000us   dem wbnum
#>    <chr>        <chr>  <dbl>                      <dbl> <dbl> <dbl>
#>  1 Argentina    ARG     1969                      6515.     0     3
#>  2 Argentina    ARG     1970                      6611.     0     3
#>  3 Burundi      BDI     1969                       106.     0     9
#>  4 Burundi      BDI     1970                       127.     0     9
#>  5 Benin        BEN     1969                       292.     0    11
#>  6 Benin        BEN     1970                       292.     0    11
#>  7 Burkina Faso BFA     1969                       139.     0    12
#>  8 Burkina Faso BFA     1970                       137.     0    12
#>  9 Bolivia      BOL     1969                       954.     0    20
#> 10 Bolivia      BOL     1970                       927.     0    20
#> # ℹ 96 more rows
…
